{"response":{"status":"ok","userTier":"developer","total":15142,"startIndex":1,"pageSize":10,"currentPage":1,"pages":1515,"orderBy":"relevance","results":[{"id":"help/insideguardian/2023/jun/16/the-guardians-approach-to-generative-ai","type":"article","sectionId":"help","sectionName":"Help","webPublicationDate":"2026-03-04T12:56:53Z","webTitle":"The Guardian’s approach to generative AI","webUrl":"https://www.theguardian.com/help/insideguardian/2023/jun/16/the-guardians-approach-to-generative-ai","apiUrl":"https://content.guardianapis.com/help/insideguardian/2023/jun/16/the-guardians-approach-to-generative-ai","isHosted":false,"pillarId":"pillar/news","pillarName":"News"},{"id":"technology/2026/mar/12/council-approves-lincolnshire-datacentre-despite-emissions-warnings","type":"article","sectionId":"technology","sectionName":"Technology","webPublicationDate":"2026-03-12T16:47:58Z","webTitle":"Lincolnshire council approves AI datacentre despite emissions warnings","webUrl":"https://www.theguardian.com/technology/2026/mar/12/council-approves-lincolnshire-datacentre-despite-emissions-warnings","apiUrl":"https://content.guardianapis.com/technology/2026/mar/12/council-approves-lincolnshire-datacentre-despite-emissions-warnings","isHosted":false,"pillarId":"pillar/news","pillarName":"News"},{"id":"artanddesign/2026/feb/09/china-ai-weiwei-western-censorship-home-surveillance","type":"article","sectionId":"artanddesign","sectionName":"Art and design","webPublicationDate":"2026-02-09T05:00:52Z","webTitle":"‘Was I scared going back to China? No’: Ai Weiwei on AI, western censorship and returning home","webUrl":"https://www.theguardian.com/artanddesign/2026/feb/09/china-ai-weiwei-western-censorship-home-surveillance","apiUrl":"https://content.guardianapis.com/artanddesign/2026/feb/09/china-ai-weiwei-western-censorship-home-surveillance","isHosted":false,"pillarId":"pillar/arts","pillarName":"Arts"},{"id":"technology/2026/mar/08/block-ai-layoffs-jack-dorsey","type":"article","sectionId":"technology","sectionName":"Technology","webPublicationDate":"2026-03-08T12:00:20Z","webTitle":"Current and former Block workers say AI can’t do their jobs after Jack Dorsey’s mass layoffs: ‘You can’t really AI that’","webUrl":"https://www.theguardian.com/technology/2026/mar/08/block-ai-layoffs-jack-dorsey","apiUrl":"https://content.guardianapis.com/technology/2026/mar/08/block-ai-layoffs-jack-dorsey","isHosted":false,"pillarId":"pillar/news","pillarName":"News"},{"id":"technology/2026/mar/06/ben-affleck-sells-ai-postproduction-startup-interpositive-to-netflix","type":"article","sectionId":"technology","sectionName":"Technology","webPublicationDate":"2026-03-06T14:55:17Z","webTitle":"Ben Affleck sells his AI postproduction startup to Netflix","webUrl":"https://www.theguardian.com/technology/2026/mar/06/ben-affleck-sells-ai-postproduction-startup-interpositive-to-netflix","apiUrl":"https://content.guardianapis.com/technology/2026/mar/06/ben-affleck-sells-ai-postproduction-startup-interpositive-to-netflix","isHosted":false,"pillarId":"pillar/news","pillarName":"News"},{"id":"technology/2026/mar/15/ai-has-exposed-age-old-problems-with-university-coursework","type":"article","sectionId":"technology","sectionName":"Technology","webPublicationDate":"2026-03-15T16:52:29Z","webTitle":"AI has exposed age-old problems with university coursework | Letter","webUrl":"https://www.theguardian.com/technology/2026/mar/15/ai-has-exposed-age-old-problems-with-university-coursework","apiUrl":"https://content.guardianapis.com/technology/2026/mar/15/ai-has-exposed-age-old-problems-with-university-coursework","isHosted":false,"pillarId":"pillar/news","pillarName":"News"},{"id":"technology/2026/mar/09/anthropic-defense-department-lawsuit-ai","type":"article","sectionId":"technology","sectionName":"Technology","webPublicationDate":"2026-03-09T16:26:00Z","webTitle":"AI firm Anthropic sues US defense department over blacklisting","webUrl":"https://www.theguardian.com/technology/2026/mar/09/anthropic-defense-department-lawsuit-ai","apiUrl":"https://content.guardianapis.com/technology/2026/mar/09/anthropic-defense-department-lawsuit-ai","isHosted":false,"pillarId":"pillar/news","pillarName":"News"},{"id":"technology/2026/mar/04/joy-of-teaching-english-in-the-age-of-ai","type":"article","sectionId":"technology","sectionName":"Technology","webPublicationDate":"2026-03-04T16:52:43Z","webTitle":"Joy of teaching English in the age of AI | Letter","webUrl":"https://www.theguardian.com/technology/2026/mar/04/joy-of-teaching-english-in-the-age-of-ai","apiUrl":"https://content.guardianapis.com/technology/2026/mar/04/joy-of-teaching-english-in-the-age-of-ai","isHosted":false,"pillarId":"pillar/news","pillarName":"News"},{"id":"fashion/2026/feb/27/fashions-greatest-challenges-inequality-and-ai-say-prada-designers","type":"article","sectionId":"fashion","sectionName":"Fashion","webPublicationDate":"2026-02-27T07:00:37Z","webTitle":"Fashion’s greatest challenges ‘inequality and AI’, say Prada designers","webUrl":"https://www.theguardian.com/fashion/2026/feb/27/fashions-greatest-challenges-inequality-and-ai-say-prada-designers","apiUrl":"https://content.guardianapis.com/fashion/2026/feb/27/fashions-greatest-challenges-inequality-and-ai-say-prada-designers","isHosted":false,"pillarId":"pillar/lifestyle","pillarName":"Lifestyle"},{"id":"accenture/2026/feb/19/accenture-links-staff-promotions-to-use-of-ai-tools","type":"article","sectionId":"technology","sectionName":"Technology","webPublicationDate":"2026-02-19T17:21:01Z","webTitle":"Accenture ‘links staff promotions to use of AI tools’","webUrl":"https://www.theguardian.com/accenture/2026/feb/19/accenture-links-staff-promotions-to-use-of-ai-tools","apiUrl":"https://content.guardianapis.com/accenture/2026/feb/19/accenture-links-staff-promotions-to-use-of-ai-tools","isHosted":false,"pillarId":"pillar/news","pillarName":"News"}]}}